{
  "customers": [
    {
      "title": "Mr",
      "forename": "Joe",
      "surname": "Bloggs",
      "emailAddress": "joebloggs@tester.co.uk",
      "mobileNo": "07483720943",
      "status": 0,
      "addresses": [
        {
          "addressId": "d26d10ee-6cbc-4d38-8570-3baaf79cfa90",
          "addressLine1": "Flat 1",
          "addressLine2": "54 Zoo Lane",
          "town": "Leeds",
          "county": "West Yorkshire",
          "postcode": "LS1 4AJ",
          "country": "UK",
          "isMainAddress": false
        }
      ]
    },
    {
      "title": "Mr",
      "forename": "Joe",
      "surname": "Blogger",
      "emailAddress": "joeblogger@tester.co.uk",
      "mobileNo": "07483720944",
      "status": 1,
      "addresses": [
        {
          "addressId": "5ae9f2c9-33aa-4cc0-8476-ffcab550708c",
          "addressLine1": "Flat 2",
          "addressLine2": "55 Zoo Lane",
          "town": "Leeds",
          "county": "West Yorkshire",
          "postcode": "LS1 5AJ",
          "country": "UK",
          "isMainAddress": true
        },
        {
          "addressId": "b8bffd05-4457-497b-8824-a20453060708",
          "addressLine1": "Flat 8",
          "addressLine2": "77 Leeds Road",
          "town": "Bradford",
          "county": "West Yorkshire",
          "postcode": "BD3 8AJ",
          "country": "UK",
          "isMainAddress": false
        }
      ]
    },
    {
      "title": "Mr",
      "forename": "Joe",
      "surname": "Blogging",
      "emailAddress": "joeblogging@tester.co.uk",
      "mobileNo": "07483720945",
      "status": 0,
      "addresses": [
        {
          "addressId": "d428c3a0-4c5c-4862-869a-0d8a48c221d9",
          "addressLine1": "Flat 3",
          "addressLine2": "56 Zoo Lane",
          "town": "Leeds",
          "county": "West Yorkshire",
          "postcode": "LS1 4AJ",
          "country": "UK",
          "isMainAddress": true
        }
      ]
    }
  ]
}
